# Blender v2.82 (sub 7) OBJ File: ''
# www.blender.org
mtllib wooden_chair_tr.mtl
o Wooden_Chair_Chair
v 0.000000 0.442845 -0.225827
v 0.000000 0.442845 0.225827
v -0.225000 0.442845 0.225827
v -0.225000 0.442845 -0.225827
v 0.000000 0.482646 -0.225827
v -0.218542 0.487130 -0.225827
v -0.218542 0.487130 0.221341
v 0.000000 0.482646 0.221341
v -0.215178 -0.000000 0.158079
v -0.215178 0.442845 0.158079
v -0.167361 0.442845 0.158079
v -0.167361 -0.000000 0.158079
v -0.167361 0.442845 0.203244
v -0.215178 0.442845 0.203244
v -0.215178 -0.000000 0.203244
v -0.167361 -0.000000 0.203244
v -0.215178 0.000000 -0.271459
v -0.215178 0.000000 -0.226294
v -0.214662 0.442845 -0.226294
v -0.214662 0.442845 -0.271459
v -0.166845 0.442845 -0.271459
v -0.166845 0.442845 -0.226294
v -0.167361 0.000000 -0.226294
v -0.167361 0.000000 -0.271459
v -0.214662 0.509272 -0.271459
v -0.166845 0.509272 -0.271459
v -0.166845 0.509272 -0.226294
v -0.214662 0.509272 -0.226294
v -0.214662 1.004045 -0.279625
v -0.214662 0.996748 -0.324173
v -0.166845 0.996748 -0.324173
v -0.166845 1.004045 -0.279625
v 0.000000 0.963541 -0.288119
v 0.000000 0.957765 -0.308648
v -0.166893 0.957765 -0.308648
v -0.166893 0.963541 -0.278617
v 0.000000 0.750437 -0.287187
v 0.000000 0.756214 -0.266658
v -0.166893 0.756214 -0.257156
v -0.166893 0.750437 -0.287187
v 0.000000 0.736300 -0.266101
v 0.000000 0.730524 -0.286630
v -0.166893 0.730524 -0.286630
v -0.166893 0.736300 -0.256599
v 0.000000 0.523196 -0.265169
v 0.000000 0.528973 -0.244640
v -0.166893 0.528973 -0.235138
v -0.166893 0.523196 -0.265169
v -0.215178 0.398561 -0.226294
v -0.215178 0.398561 0.158079
v -0.215178 0.442845 -0.226294
v -0.167361 0.398561 0.158079
v -0.167361 0.398561 -0.226294
v -0.167361 0.442845 -0.226294
v -0.166845 0.398561 -0.226294
v 0.000000 0.398561 -0.226294
v 0.000000 0.442845 -0.226294
v 0.000000 0.442845 -0.271459
v 0.000000 0.398561 -0.271459
v -0.166845 0.398561 -0.271459
v -0.166845 0.398561 0.203244
v 0.000000 0.398561 0.203244
v 0.000000 0.442845 0.203244
v -0.166845 0.442845 0.203244
v 0.000000 0.442845 0.158079
v 0.000000 0.398561 0.158079
v -0.166845 0.398561 0.158079
v -0.166845 0.442845 0.158079
v 0.225000 0.442845 -0.225827
v 0.225000 0.442845 0.225827
v 0.218542 0.487130 0.221341
v 0.218542 0.487130 -0.225827
v 0.215178 -0.000000 0.158079
v 0.167361 -0.000000 0.158079
v 0.167361 0.442845 0.158079
v 0.215178 0.442845 0.158079
v 0.167361 0.442845 0.203244
v 0.167361 -0.000000 0.203244
v 0.215178 -0.000000 0.203244
v 0.215178 0.442845 0.203244
v 0.215178 0.000000 -0.271459
v 0.214662 0.442845 -0.271459
v 0.214662 0.442845 -0.226294
v 0.215178 0.000000 -0.226294
v 0.166845 0.442845 -0.271459
v 0.167361 0.000000 -0.271459
v 0.167361 0.000000 -0.226294
v 0.166845 0.442845 -0.226294
v 0.166845 0.509272 -0.271459
v 0.214662 0.509272 -0.271459
v 0.214662 0.509272 -0.226294
v 0.166845 0.509272 -0.226294
v 0.214662 0.996748 -0.324173
v 0.214662 1.004045 -0.279625
v 0.166845 1.004045 -0.279625
v 0.166845 0.996748 -0.324173
v 0.166893 0.963541 -0.278617
v 0.166893 0.957765 -0.308648
v 0.166893 0.750437 -0.287187
v 0.166893 0.756214 -0.257156
v 0.166893 0.736300 -0.256599
v 0.166893 0.730524 -0.286630
v 0.166893 0.523196 -0.265169
v 0.166893 0.528973 -0.235138
v 0.215178 0.398561 -0.226294
v 0.215178 0.442845 -0.226294
v 0.215178 0.398561 0.158079
v 0.167361 0.442845 -0.226294
v 0.167361 0.398561 -0.226294
v 0.167361 0.398561 0.158079
v 0.166845 0.398561 -0.226294
v 0.166845 0.398561 -0.271459
v 0.166845 0.398561 0.203244
v 0.166845 0.442845 0.203244
v 0.166845 0.442845 0.158079
v 0.166845 0.398561 0.158079
vt 0.522699 0.539326
vt 0.262125 0.004651
vt 0.522699 0.004651
vt 0.001550 0.539844
vt 0.262125 0.004651
vt 0.262125 0.539844
vt 0.246185 0.767889
vt 0.194121 0.547657
vt 0.246185 0.547657
vt 0.843655 0.854330
vt 0.895770 0.413866
vt 0.895770 0.854330
vt 0.272293 0.974304
vt 0.324358 0.754072
vt 0.324358 0.974304
vt 0.506810 0.987177
vt 0.454695 0.547138
vt 0.506810 0.547138
vt 0.947885 0.853906
vt 1.000000 0.413866
vt 1.000000 0.853906
vt 0.791540 0.854331
vt 0.843655 0.413866
vt 0.843655 0.854331
vt 0.895770 0.854330
vt 0.947885 0.413866
vt 0.947885 0.854331
vt 0.156600 0.754590
vt 0.104743 0.798637
vt 0.104743 0.754590
vt 0.559936 1.000000
vt 0.584993 0.557846
vt 0.611980 0.997719
vt 0.597426 0.439873
vt 0.676459 0.002281
vt 0.649471 0.442154
vt 0.739425 0.559928
vt 0.687310 0.999967
vt 0.687310 0.559928
vt 0.791540 0.440038
vt 0.739425 0.000000
vt 0.791540 0.000000
vt 0.739425 0.506044
vt 0.739425 0.440038
vt 0.739425 0.493922
vt 0.593378 0.505854
vt 0.532948 0.560127
vt 0.580945 0.491865
vt 0.560202 0.000000
vt 0.611980 0.004999
vt 0.645423 0.508135
vt 0.624681 1.000000
vt 0.687310 0.493922
vt 0.739425 0.000000
vt 0.791540 0.506044
vt 0.739425 0.992690
vt 0.104743 0.754590
vt 0.052742 0.798637
vt 0.052742 0.754590
vt 0.406459 0.754072
vt 0.447482 0.908234
vt 0.406459 0.908234
vt 0.365408 0.754072
vt 0.324358 0.908234
vt 0.324358 0.754072
vt 0.791540 0.413866
vt 0.973942 0.206933
vt 0.973942 0.413866
vt 0.454695 0.754072
vt 0.272293 0.547138
vt 0.454695 0.547138
vt 0.011719 0.754590
vt 0.052742 0.908753
vt 0.011719 0.908753
vt 0.406459 0.754072
vt 0.365409 0.908234
vt 0.365408 0.754072
vt 0.973942 0.000000
vt 0.791540 0.206933
vt 0.791540 0.000000
vt 0.194121 0.754590
vt 0.011719 0.547657
vt 0.194121 0.547657
vt 0.506810 0.987177
vt 0.454695 0.547138
vt 0.506810 0.547138
vt 0.947885 0.853906
vt 1.000000 0.413866
vt 1.000000 0.853906
vt 0.791540 0.854331
vt 0.843655 0.413866
vt 0.843655 0.854331
vt 0.895770 0.854330
vt 0.947885 0.413866
vt 0.947885 0.854331
vt 0.506810 0.987177
vt 0.454695 0.547138
vt 0.506810 0.547138
vt 0.947885 0.853906
vt 1.000000 0.413866
vt 1.000000 0.853906
vt 0.791540 0.854331
vt 0.843655 0.413866
vt 0.843655 0.854331
vt 0.895770 0.854330
vt 0.947885 0.413866
vt 0.947885 0.854331
vt 0.506810 0.987177
vt 0.454695 0.547138
vt 0.506810 0.547138
vt 0.947885 0.853906
vt 1.000000 0.413866
vt 1.000000 0.853906
vt 0.791540 0.854331
vt 0.843655 0.413866
vt 0.843655 0.854331
vt 0.895770 0.854330
vt 0.947885 0.413866
vt 0.947885 0.854331
vt 0.104743 0.798637
vt 0.156600 0.754590
vt 0.104743 0.754590
vt 0.104743 0.798637
vt 0.156600 0.754590
vt 0.104743 0.754590
vt 0.262125 0.004651
vt 0.001550 0.539844
vt 0.194121 0.547657
vt 0.194121 0.767889
vt 0.895770 0.413866
vt 0.843655 0.854330
vt 0.895770 0.854330
vt 0.324358 0.754072
vt 0.454695 0.547138
vt 0.506810 0.987177
vt 0.506810 0.547138
vt 1.000000 0.413866
vt 0.947885 0.853906
vt 1.000000 0.853906
vt 0.843655 0.413866
vt 0.791540 0.854331
vt 0.843655 0.854331
vt 0.947885 0.413866
vt 0.895770 0.854330
vt 0.947885 0.854331
vt 0.104743 0.798637
vt 0.156600 0.754590
vt 0.104743 0.754590
vt 0.584993 0.557846
vt 0.559936 1.000000
vt 0.611980 0.997719
vt 0.676459 0.002281
vt 0.597426 0.439873
vt 0.649471 0.442154
vt 0.687310 0.999967
vt 0.739425 0.559928
vt 0.687310 0.559928
vt 0.739425 0.000000
vt 0.791540 0.440038
vt 0.791540 0.000000
vt 0.739425 0.506044
vt 0.739425 0.440038
vt 0.739425 0.493922
vt 0.593378 0.505854
vt 0.580945 0.491865
vt 0.532948 0.560127
vt 0.560202 0.000000
vt 0.528900 0.494146
vt 0.624681 1.000000
vt 0.645423 0.508135
vt 0.739425 0.000000
vt 0.687310 0.493922
vt 0.739425 0.992690
vt 0.791540 0.506044
vt 0.052742 0.798637
vt 0.104743 0.754590
vt 0.052742 0.754590
vt 0.447482 0.908234
vt 0.447482 0.754072
vt 0.324358 0.908234
vt 0.791540 0.413866
vt 0.272293 0.547138
vt 0.052742 0.908753
vt 0.052742 0.754590
vt 0.365409 0.908234
vt 0.973942 0.000000
vt 0.011719 0.547657
vt 0.454695 0.547138
vt 0.506810 0.987177
vt 0.506810 0.547138
vt 1.000000 0.413866
vt 0.947885 0.853906
vt 1.000000 0.853906
vt 0.843655 0.413866
vt 0.791540 0.854331
vt 0.843655 0.854331
vt 0.947885 0.413866
vt 0.895770 0.854330
vt 0.947885 0.854331
vt 0.454695 0.547138
vt 0.506810 0.547138
vt 1.000000 0.413866
vt 0.843655 0.413866
vt 0.895770 0.854330
vt 0.947885 0.854331
vt 0.454695 0.547138
vt 0.506810 0.547138
vt 1.000000 0.413866
vt 0.843655 0.413866
vt 0.895770 0.854330
vt 0.947885 0.854331
vt 0.156600 0.754590
vt 0.104743 0.798637
vt 0.104743 0.754590
vt 0.156600 0.754590
vt 0.104743 0.798637
vt 0.104743 0.754590
vt 0.262125 0.539326
vt 0.001550 0.004651
vt 0.843655 0.413866
vt 0.272293 0.754072
vt 0.454695 0.987177
vt 0.947885 0.413867
vt 0.791540 0.413866
vt 0.895770 0.413866
vt 0.156600 0.798637
vt 0.624414 0.000000
vt 0.739425 0.999967
vt 0.528900 0.494146
vt 0.676459 0.995002
vt 0.687310 0.000000
vt 0.791540 0.992690
vt 0.104743 0.798637
vt 0.365408 0.908234
vt 0.791540 0.206933
vt 0.272293 0.754072
vt 0.406459 0.908234
vt 0.973942 0.206933
vt 0.011719 0.754590
vt 0.454695 0.987177
vt 0.947885 0.413867
vt 0.791540 0.413866
vt 0.895770 0.413866
vt 0.454695 0.987177
vt 0.947885 0.413867
vt 0.791540 0.413866
vt 0.895770 0.413866
vt 0.454695 0.987177
vt 0.947885 0.413867
vt 0.791540 0.413866
vt 0.895770 0.413866
vt 0.156600 0.798637
vt 0.156600 0.798637
vt 0.262125 0.539326
vt 0.001550 0.004651
vt 0.246185 0.547657
vt 0.843655 0.413866
vt 0.272293 0.754072
vt 0.454695 0.987177
vt 0.947885 0.413867
vt 0.791540 0.413866
vt 0.895770 0.413866
vt 0.156600 0.798637
vt 0.624414 0.000000
vt 0.739425 0.999967
vt 0.611980 0.004999
vt 0.676459 0.995002
vt 0.687310 0.000000
vt 0.791540 0.992690
vt 0.104743 0.798637
vt 0.406459 0.908234
vt 0.365408 0.908234
vt 0.791540 0.206933
vt 0.272293 0.754072
vt 0.011719 0.908753
vt 0.406459 0.908234
vt 0.973942 0.206933
vt 0.011719 0.754590
vt 0.454695 0.987177
vt 0.947885 0.413867
vt 0.791540 0.413866
vt 0.895770 0.413866
vt 0.947885 0.413867
vt 0.791540 0.413866
vt 0.947885 0.413867
vt 0.791540 0.413866
vt 0.156600 0.798637
vt 0.156600 0.798637
vn 0.0000 -0.6669 0.7452
vn -0.6214 -0.5374 -0.5701
vn -0.0000 -0.7071 -0.7071
vn -0.5246 0.6193 -0.5842
vn -0.0000 0.7417 0.6707
vn -0.0000 0.7024 -0.7118
vn -0.5284 0.6470 0.5496
vn -0.6146 -0.5129 0.5993
vn 0.0000 0.0000 -1.0000
vn 0.0000 -0.0000 1.0000
vn 0.7071 0.7071 0.0000
vn 1.0000 0.0000 0.0000
vn -1.0000 0.0000 0.0000
vn 0.0000 1.0000 0.0000
vn -1.0000 0.0012 0.0000
vn -1.0000 0.0006 0.0000
vn 1.0000 -0.0012 0.0000
vn 0.7067 -0.7075 -0.0000
vn 0.0000 -0.0538 -0.9985
vn 0.0000 0.0537 0.9986
vn 0.0000 0.1072 0.9942
vn 0.0000 -0.1075 -0.9942
vn 0.0000 0.9868 -0.1616
vn 0.0000 0.9651 -0.2617
vn -0.0099 0.9806 -0.1955
vn -0.0108 0.9819 -0.1889
vn 0.0000 -0.9651 0.2618
vn 0.0099 -0.9806 0.1956
vn 0.0000 -0.9626 0.2709
vn 0.0565 0.1028 0.9931
vn 0.0000 0.1030 0.9947
vn 0.0000 -0.1030 -0.9947
vn 0.0000 -1.0000 0.0000
vn 0.6214 -0.5374 -0.5701
vn 0.5246 0.6193 -0.5842
vn 0.5284 0.6470 0.5496
vn 0.6146 -0.5129 0.5993
vn -0.7071 0.7071 0.0000
vn 1.0000 0.0006 0.0000
vn 1.0000 0.0012 0.0000
vn -0.7067 -0.7075 -0.0000
vn -1.0000 -0.0012 0.0000
vn 0.0099 0.9806 -0.1955
vn 0.0000 0.9626 -0.2708
vn -0.0099 -0.9806 0.1956
vn -0.0565 0.1028 0.9931
vn 0.0108 -0.9819 0.1889
vn 0.0108 0.9819 -0.1889
vn -0.0108 -0.9819 0.1889
usemtl Wooden_Chair
s 1
f 2/1/1 4/2/2 1/3/3
f 6/4/4 8/5/5 5/6/6
f 2/7/1 7/8/7 3/9/8
f 7/10/7 4/11/2 3/12/8
f 1/13/3 6/14/4 5/15/6
f 10/16/9 12/17/9 9/18/9
f 14/19/10 16/20/10 13/21/10
f 13/22/11 12/23/12 11/24/11
f 15/25/13 10/26/13 9/27/13
f 14/28/14 11/29/11 10/30/14
f 18/31/15 20/32/16 17/33/15
f 22/34/17 24/35/18 21/36/17
f 19/37/10 23/38/10 22/39/10
f 20/40/9 24/41/9 17/42/9
f 20/40/9 26/43/19 21/44/9
f 22/39/10 28/45/20 19/37/10
f 21/36/12 27/46/12 22/34/12
f 19/47/16 25/48/13 20/32/16
f 25/48/13 29/49/13 30/50/13
f 26/51/12 32/52/12 27/46/12
f 27/53/20 29/54/21 28/45/20
f 25/55/19 31/56/22 26/43/19
f 29/57/23 31/58/23 30/59/23
f 33/60/24 35/61/25 36/62/26
f 38/63/27 40/64/28 37/65/29
f 36/66/30 38/67/31 33/68/31
f 37/69/32 35/70/32 34/71/32
f 41/72/24 43/73/25 44/74/26
f 46/75/27 48/76/28 45/77/29
f 44/78/30 46/79/31 41/80/31
f 45/81/32 43/82/32 42/83/32
f 50/84/13 51/85/13 49/86/13
f 52/87/12 54/88/12 11/89/12
f 11/90/14 51/91/14 10/92/14
f 53/93/33 50/94/33 49/95/33
f 56/96/10 22/97/10 55/98/10
f 59/99/9 21/100/9 58/101/9
f 58/102/14 22/103/14 57/104/14
f 60/105/33 56/106/33 55/107/33
f 62/108/10 64/109/10 61/110/10
f 66/111/9 68/112/9 65/113/9
f 65/114/14 64/115/14 63/116/14
f 67/117/33 62/118/33 61/119/33
f 24/120/18 18/121/33 17/122/33
f 12/123/33 15/124/33 9/125/33
f 69/126/34 2/1/1 1/3/3
f 8/5/5 72/127/35 5/6/6
f 2/7/1 71/128/36 8/129/5
f 69/130/34 71/131/36 70/132/37
f 72/133/35 1/13/3 5/15/6
f 74/134/9 76/135/9 73/136/9
f 78/137/10 80/138/10 77/139/10
f 74/140/13 77/141/38 75/142/38
f 76/143/12 79/144/12 73/145/12
f 75/146/38 80/147/14 76/148/14
f 82/149/39 84/150/40 81/151/40
f 86/152/41 88/153/42 85/154/42
f 87/155/10 83/156/10 88/157/10
f 86/158/9 82/159/9 81/160/9
f 89/161/19 82/159/9 85/162/9
f 91/163/20 88/157/10 83/156/10
f 92/164/13 85/154/13 88/153/13
f 90/165/12 83/166/39 82/149/39
f 90/165/12 94/167/12 91/168/12
f 95/169/13 89/170/13 92/164/13
f 94/171/21 92/172/20 91/163/20
f 96/173/22 90/174/19 89/161/19
f 96/175/23 94/176/23 93/177/23
f 33/60/24 98/178/43 34/179/44
f 99/180/45 38/63/27 37/65/29
f 38/67/31 97/181/46 33/68/31
f 98/182/32 37/69/32 34/71/32
f 41/72/24 102/183/43 42/184/44
f 103/185/45 46/75/27 45/77/29
f 46/79/31 101/186/46 41/80/31
f 102/187/32 45/81/32 42/83/32
f 106/188/12 107/189/12 105/190/12
f 108/191/13 110/192/13 75/193/13
f 106/194/14 75/195/14 76/196/14
f 107/197/33 109/198/33 105/199/33
f 88/200/10 56/96/10 111/201/10
f 85/202/9 59/99/9 58/101/9
f 88/203/14 58/102/14 57/104/14
f 56/106/33 112/204/33 111/205/33
f 114/206/10 62/108/10 113/207/10
f 115/208/9 66/111/9 65/113/9
f 114/209/14 65/114/14 63/116/14
f 62/118/33 116/210/33 113/211/33
f 84/212/33 86/213/41 81/214/33
f 79/215/33 74/216/33 73/217/33
f 2/1/1 3/218/8 4/2/2
f 6/4/4 7/219/7 8/5/5
f 2/7/1 8/129/5 7/8/7
f 7/10/7 6/220/4 4/11/2
f 1/13/3 4/221/2 6/14/4
f 10/16/9 11/222/9 12/17/9
f 14/19/10 15/223/10 16/20/10
f 13/22/11 16/224/12 12/23/12
f 15/25/13 14/225/13 10/26/13
f 14/28/14 13/226/11 11/29/11
f 18/31/15 19/47/16 20/32/16
f 22/34/17 23/227/18 24/35/18
f 19/37/10 18/228/10 23/38/10
f 20/40/9 21/44/9 24/41/9
f 20/40/9 25/55/19 26/43/19
f 22/39/10 27/53/20 28/45/20
f 21/36/12 26/51/12 27/46/12
f 19/47/16 28/229/13 25/48/13
f 25/48/13 28/229/13 29/49/13
f 26/51/12 31/230/12 32/52/12
f 27/53/20 32/231/21 29/54/21
f 25/55/19 30/232/22 31/56/22
f 29/57/23 32/233/23 31/58/23
f 33/60/24 34/179/44 35/61/25
f 38/63/27 39/234/47 40/64/28
f 36/66/30 39/235/30 38/67/31
f 37/69/32 40/236/32 35/70/32
f 41/72/24 42/184/44 43/73/25
f 46/75/27 47/237/47 48/76/28
f 44/78/30 47/238/30 46/79/31
f 45/81/32 48/239/32 43/82/32
f 50/84/13 10/240/13 51/85/13
f 52/87/12 53/241/12 54/88/12
f 11/90/14 54/242/14 51/91/14
f 53/93/33 52/243/33 50/94/33
f 56/96/10 57/244/10 22/97/10
f 59/99/9 60/245/9 21/100/9
f 58/102/14 21/246/14 22/103/14
f 60/105/33 59/247/33 56/106/33
f 62/108/10 63/248/10 64/109/10
f 66/111/9 67/249/9 68/112/9
f 65/114/14 68/250/14 64/115/14
f 67/117/33 66/251/33 62/118/33
f 24/120/18 23/252/18 18/121/33
f 12/123/33 16/253/33 15/124/33
f 69/126/34 70/254/37 2/1/1
f 8/5/5 71/255/36 72/127/35
f 2/7/1 70/256/37 71/128/36
f 69/130/34 72/257/35 71/131/36
f 72/133/35 69/258/34 1/13/3
f 74/134/9 75/259/9 76/135/9
f 78/137/10 79/260/10 80/138/10
f 74/140/13 78/261/13 77/141/38
f 76/143/12 80/262/12 79/144/12
f 75/146/38 77/263/38 80/147/14
f 82/149/39 83/166/39 84/150/40
f 86/152/41 87/264/41 88/153/42
f 87/155/10 84/265/10 83/156/10
f 86/158/9 85/162/9 82/159/9
f 89/161/19 90/174/19 82/159/9
f 91/163/20 92/172/20 88/157/10
f 92/164/13 89/170/13 85/154/13
f 90/165/12 91/168/12 83/166/39
f 90/165/12 93/266/12 94/167/12
f 95/169/13 96/267/13 89/170/13
f 94/171/21 95/268/21 92/172/20
f 96/173/22 93/269/22 90/174/19
f 96/175/23 95/270/23 94/176/23
f 33/60/24 97/271/48 98/178/43
f 99/180/45 100/272/49 38/63/27
f 38/67/31 100/273/46 97/181/46
f 98/182/32 99/274/32 37/69/32
f 41/72/24 101/275/48 102/183/43
f 103/185/45 104/276/49 46/75/27
f 46/79/31 104/277/46 101/186/46
f 102/187/32 103/278/32 45/81/32
f 106/188/12 76/279/12 107/189/12
f 108/191/13 109/280/13 110/192/13
f 106/194/14 108/281/14 75/195/14
f 107/197/33 110/282/33 109/198/33
f 88/200/10 57/244/10 56/96/10
f 85/202/9 112/283/9 59/99/9
f 88/203/14 85/284/14 58/102/14
f 56/106/33 59/247/33 112/204/33
f 114/206/10 63/248/10 62/108/10
f 115/208/9 116/285/9 66/111/9
f 114/209/14 115/286/14 65/114/14
f 62/118/33 66/251/33 116/210/33
f 84/212/33 87/287/41 86/213/41
f 79/215/33 78/288/33 74/216/33
